…
``` r
summary_phyto_stats <- stats_data %>% 
  group_by(phyto, wl) %>% 
  get_summary_stats(mean_cells:chlb_chla)
```

    ```

``` r
stats_data %>% 
  group_by( wl) %>% 
  get_summary_stats(mean_cells:chlb_chla)
```

    ## # A tibble: 96 × 14
    ##    wl    variable         n     min      max   median       q1       q3      iqr
    ##    <chr> <fct>        <dbl>   <dbl>    <dbl>    <dbl>    <dbl>    <dbl>    <dbl>
    ##  1 470   mean_cells      66 7.25e+9 1.12e+12 1.29e+11 5.04e+10 5.68e+11 5.17e+11
    ##  2 470   mean_chl_li…    67 1.93e+0 5.83e+ 0 3.19e+ 0 2.67e+ 0 4.06e+ 0 1.39e+ 0
    ##  3 470   mean_poc_op…    41 2.8 e-2 4.95e- 1 1.96e- 1 1.08e- 1 3.84e- 1 2.76e- 1
    ##  4 470   mean_pon_op…    41 9   e-3 9   e- 2 3.8 e- 2 1.4 e- 2 7   e- 2 5.5 e- 2
    ##  5 470   mean_cp         67 2.32e-1 1.72e+ 0 7.17e- 1 5.7 e- 1 1.08e+ 0 5.14e- 1
    ##  6 470   mean_ap         67 2.5 e-2 2.78e- 1 1.48e- 1 1.03e- 1 1.75e- 1 7.2 e- 2
    ##  7 470   mean_bp         67 2.07e-1 1.48e+ 0 5.87e- 1 4.86e- 1 9.19e- 1 4.33e- 1
    ##  8 470   mean_bbp        67 1   e-3 5   e- 3 3   e- 3 2   e- 3 4   e- 3 2   e- 3
    ##  9 470   mean_bb_b       67 2   e-3 8   e- 3 4   e- 3 3   e- 3 7   e- 3 4   e- 3
    ## 10 470   mean_chl_ce…    66 3.59e+0 3.03e+ 2 4.13e+ 1 5.43e+ 0 7.14e+ 1 6.59e+ 1
    ## # ℹ 86 more rows
    ## # ℹ 5 more variables: mad <dbl>, mean <dbl>, sd <dbl>, se <dbl>, ci <dbl>
…
